\relax 
\providecommand\hyper@newdestlabel[2]{}
\providecommand\HyperFirstAtBeginDocument{\AtBeginDocument}
\HyperFirstAtBeginDocument{\ifx\hyper@anchor\@undefined
\global\let\oldcontentsline\contentsline
\gdef\contentsline#1#2#3#4{\oldcontentsline{#1}{#2}{#3}}
\global\let\oldnewlabel\newlabel
\gdef\newlabel#1#2{\newlabelxx{#1}#2}
\gdef\newlabelxx#1#2#3#4#5#6{\oldnewlabel{#1}{{#2}{#3}}}
\AtEndDocument{\ifx\hyper@anchor\@undefined
\let\contentsline\oldcontentsline
\let\newlabel\oldnewlabel
\fi}
\fi}
\global\let\hyper@last\relax 
\gdef\HyperFirstAtBeginDocument#1{#1}
\providecommand\HyField@AuxAddToFields[1]{}
\providecommand\HyField@AuxAddToCoFields[2]{}
\bibstyle{aer}
\@writefile{toc}{\contentsline {section}{\numberline {1}Introduction}{1}{section.1}}
\@writefile{toc}{\contentsline {section}{\numberline {2}Introduction to Three Quantile IV Models}{2}{section.2}}
\@writefile{toc}{\contentsline {subsection}{\numberline {2.1}Abadie, Angrist, and Imbens (2002)}{2}{subsection.2.1}}
\@writefile{toc}{\contentsline {subsection}{\numberline {2.2}Chernozhukov and Hansen (2004)}{3}{subsection.2.2}}
\@writefile{toc}{\contentsline {subsection}{\numberline {2.3}ICE (Inverted CDF Estimator)}{3}{subsection.2.3}}
\@writefile{toc}{\contentsline {section}{\numberline {3}Monte Carlo Simulation}{5}{section.3}}
\@writefile{toc}{\contentsline {subsection}{\numberline {3.1}With $n=10,000$}{5}{subsection.3.1}}
\@writefile{lot}{\contentsline {table}{\numberline {1}{\ignorespaces With $\tau = 0.1 $ and $n= 10,000 $\relax }}{5}{table.caption.1}}
\providecommand*\caption@xref[2]{\@setref\relax\@undefined{#1}}
\newlabel{table:nonlin}{{1}{5}{With $\tau = 0.1 $ and $n= 10,000 $\relax }{table.caption.1}{}}
\@writefile{lot}{\contentsline {table}{\numberline {2}{\ignorespaces With $\tau = 0.25 $ and $n= 10,000 $\relax }}{5}{table.caption.2}}
\newlabel{table:nonlin}{{2}{5}{With $\tau = 0.25 $ and $n= 10,000 $\relax }{table.caption.2}{}}
\@writefile{lot}{\contentsline {table}{\numberline {3}{\ignorespaces With $\tau = 0.5 $ and $n= 10,000 $\relax }}{5}{table.caption.3}}
\newlabel{table:nonlin}{{3}{5}{With $\tau = 0.5 $ and $n= 10,000 $\relax }{table.caption.3}{}}
\@writefile{lot}{\contentsline {table}{\numberline {4}{\ignorespaces With $\tau = 0.75 $ and $n= 10,000 $\relax }}{6}{table.caption.4}}
\newlabel{table:nonlin}{{4}{6}{With $\tau = 0.75 $ and $n= 10,000 $\relax }{table.caption.4}{}}
\@writefile{lot}{\contentsline {table}{\numberline {5}{\ignorespaces With $\tau = 0.9 $ and $n= 10,000 $\relax }}{6}{table.caption.5}}
\newlabel{table:nonlin}{{5}{6}{With $\tau = 0.9 $ and $n= 10,000 $\relax }{table.caption.5}{}}
\@writefile{toc}{\contentsline {subsection}{\numberline {3.2}With $n=1,000$}{6}{subsection.3.2}}
\@writefile{lot}{\contentsline {table}{\numberline {6}{\ignorespaces With $\tau = 0.25 $ and $n= 1,000 $\relax }}{6}{table.caption.6}}
\newlabel{table:nonlin}{{6}{6}{With $\tau = 0.25 $ and $n= 1,000 $\relax }{table.caption.6}{}}
\@writefile{lot}{\contentsline {table}{\numberline {7}{\ignorespaces With $\tau = 0.5 $ and $n= 1,000 $\relax }}{7}{table.caption.7}}
\newlabel{table:nonlin}{{7}{7}{With $\tau = 0.5 $ and $n= 1,000 $\relax }{table.caption.7}{}}
\@writefile{lot}{\contentsline {table}{\numberline {8}{\ignorespaces With $\tau = 0.75 $ and $n= 1,000 $\relax }}{7}{table.caption.8}}
\newlabel{table:nonlin}{{8}{7}{With $\tau = 0.75 $ and $n= 1,000 $\relax }{table.caption.8}{}}
\@writefile{toc}{\contentsline {section}{\numberline {4}Conclusions}{7}{section.4}}
\@writefile{toc}{\contentsline {section}{\numberline {5}References}{7}{section.5}}
\@writefile{lot}{\contentsline {table}{\numberline {9}{\ignorespaces With $\tau = 0.9 $ and $n= 1,000 $\relax }}{8}{table.caption.9}}
\newlabel{table:nonlin}{{9}{8}{With $\tau = 0.9 $ and $n= 1,000 $\relax }{table.caption.9}{}}
